Introducing stats19
…
#> [32] "weather_conditions"                              
#> [33] "road_surface_conditions"                         
#> [34] "special_conditions_at_site"                      
#> [35] "carriageway_hazards_historic"                    
#> [36] "carriageway_hazards"                             
#> [37] "urban_or_rural_area"                             
#> [38] "did_police_officer_attend_scene_of_accident"     
#> [39] "trunk_road_flag"                                 
#> [40] "lsoa_of_accident_location"                       
#> [41] "enhanced_severity_collision"                     
#> [42] "collision_injury_based"                          
#> [43] "collision_adjusted_severity_serious"             
#> [44] "collision_adjusted_severity_slight"
crashes_2022_raw[c(8, 18, 23, 25)]
#> # A tibble: 106,004 × 4
#>    police_force local_authority_highwa…¹ junction_detail_hist…² junction_control
#>    <chr>        <chr>                    <chr>                  <chr>           
#>  1 17           E06000002                0                      -1              
#>  2 17           E06000002                6                      4               
#>  3 7            E06000006                1                      4               
#>  4 4            E06000008                6                      2               
#>  5 4            E06000008                6                      4               
#>  6 4            E06000009                9                      4               
#>  7 16           E06000010                3                      4               
#>  8 16           E06000011                0                      -1              
#>  9 16           E06000013                9                      4               
#> 10 16           E06000013                0                      -1              
#> # ℹ 105,994 more rows
#> # ℹ abbreviated names: ¹​local_authority_highway_current,
#> #   ²​junction_detail_historic
crashes_2022[c(8, 18, 23, 25)]
#> # A tibble: 106,004 × 4
#>    police_force local_authority_highwa…¹ junction_detail_hist…² junction_control
#>    <chr>        <chr>                    <chr>                  <chr>           
#>  1 Cleveland    E06000002                Not at junction or wi… Data missing or…
#>  2 Cleveland    E06000002                Crossroads             Give way or unc…
#>  3 Cheshire     E06000006                Roundabout             Give way or unc…
#>  4 Lancashire   E06000008                Crossroads             Auto traffic si…
#>  5 Lancashire   E06000008                Crossroads             Give way or unc…
#>  6 Lancashire   E06000009                Other junction         Give way or unc…
#>  7 Humberside   E06000010                T or staggered juncti… Give way or unc…
#>  8 Humberside   E06000011                Not at junction or wi… Data missing or…
#>  9 Humberside   E06000013                Other junction         Give way or unc…
#> 10 Humberside   E06000013                Not at junction or wi… Data missing or…
#> # ℹ 105,994 more rows
#> # ℹ abbreviated names: ¹​local_authority_highway_current,
#> #   ²​junction_detail_historic
…
Format STATS19 data

It is also possible to import the “raw” data as provided by the DfT.
The packaged datasets stats19_variables and
stats19_schema provide summary information about the
contents of this data guide. These contain the full variable names in
the guide (stats19_variables) and a complete look up table
relating integer values to the .csv files provided by the
DfT and their labels (stats19_schema). The first rows of
each dataset are shown below:

stats19_variables
#> # A tibble: 111 × 4
#> # Groups:   table [4]
#>    table    variable                  note                     type     
#>    <chr>    <chr>                     <chr>                    <chr>    
#>  1 casualty age_band_of_casualty      <NA>                     character
#>  2 casualty age_of_casualty           <NA>                     numeric  
#>  3 casualty bus_or_coach_passenger    <NA>                     character
#>  4 casualty car_passenger             <NA>                     character
#>  5 casualty casualty_adjusted_serious <NA>                     numeric  
#>  6 casualty casualty_adjusted_slight  <NA>                     numeric  
#>  7 casualty casualty_class            <NA>                     character
#>  8 casualty casualty_distance_banding field introduced in 2023 character
#>  9 casualty casualty_imd_decile       field introduced in 2016 character
#> 10 casualty casualty_injury_based     <NA>                     character
#> # ℹ 101 more rows
…
The results show that there were

170,993 casualties reported by the police in the STATS19 dataset in
2022, and

16 columns (variables). Values for a sample of these columns are
shown below:

casualties_2022[c(4, 5, 6, 14)]
#> # A tibble: 135,480 × 4
#>    vehicle_reference casualty_reference casualty_class  bus_or_coach_passenger  
#>    <chr>             <chr>              <chr>           <chr>                   
#>  1 1                 1                  Driver or rider Not a bus or coach pass…
#>  2 2                 1                  Driver or rider Not a bus or coach pass…
#>  3 1                 1                  Pedestrian      Not a bus or coach pass…
#>  4 1                 1                  Pedestrian      Not a bus or coach pass…
#>  5 3                 1                  Driver or rider Not a bus or coach pass…
#>  6 1                 2                  Driver or rider Not a bus or coach pass…
#>  7 2                 2                  Driver or rider Not a bus or coach pass…
#>  8 1                 1                  Driver or rider Not a bus or coach pass…
#>  9 1                 1                  Pedestrian      Not a bus or coach pass…
#> 10 1                 1                  Driver or rider Not a bus or coach pass…
#> # ℹ 135,470 more rows
…
The results show that there were

238,926 vehicles involved in crashes reported by the police in the
STATS19 dataset in 2022, with

23 columns (variables). Values for a sample of these columns are
shown below:

vehicles_2022[c(3, 14:16)]
#> # A tibble: 193,545 × 4
#>    collision_ref_no skidding_and_overturning     hit_object_in_carriageway   
#>    <chr>            <chr>                        <chr>                       
#>  1 549818622        Skidded                      None                        
#>  2 501173062        Skidded and overturned       None                        
#>  3 546208722        None                         None                        
#>  4 302201450        None                         None                        
#>  5 010372909        unknown (self reported)      unknown (self reported)     
#>  6 34WNC6442        Skidded                      None                        
#>  7 061138402        None                         None                        
#>  8 010377127        unknown (self reported)      unknown (self reported)     
#>  9 471248603        Overturned                   None                        
#> 10 461139685        Data missing or out of range Data missing or out of range
#> # ℹ 193,535 more rows
#> # ℹ 1 more variable: vehicle_leaving_carriageway <chr>
…
